<?xml version="1.0" encoding="UTF-8"?>
<model ref="r:bddd89a5-1001-450b-8eb6-bed0535d1ca2(MyProject.MyProjectModel)">
  <persistence version="9" />
  <languages>
    <use id="fab11043-404a-46cc-b039-37dc7a2d7229" name="CI_Package" version="0" />
    <use id="f512ebed-7d7b-4f91-9e6c-7ea0170d5f18" name="DQLineage" version="0" />
  </languages>
  <imports />
  <registry />
</model>

