<?xml version="1.0" encoding="UTF-8"?>
<model ref="r:4baf231b-b106-48f2-9cee-6d32d91d6efe(Example_InvasiveAlienSpeciesApp.InvasiveAlienSpeciesApp)">
  <persistence version="9" />
  <languages>
    <use id="fab11043-404a-46cc-b039-37dc7a2d7229" name="CI_Package" version="0" />
    <use id="f512ebed-7d7b-4f91-9e6c-7ea0170d5f18" name="DQLineage" version="0" />
  </languages>
  <imports />
  <registry>
    <language id="f512ebed-7d7b-4f91-9e6c-7ea0170d5f18" name="DQLineage">
      <concept id="6024112388404472799" name="DQLineage.structure.LineageDocument" flags="ng" index="26uhAj">
        <child id="6024112388404472802" name="lineage" index="26uhAI" />
      </concept>
      <concept id="8826553002992674487" name="DQLineage.structure.LE_Algorithm" flags="ng" index="2kXL67">
        <child id="8826553002992901721" name="description" index="2kWE_D" />
      </concept>
      <concept id="8826553002992674479" name="DQLineage.structure.LE_Processing" flags="ng" index="2kXL6v">
        <child id="8826553002992901723" name="procedureDescription" index="2kWE_F" />
        <child id="8826553002992674490" name="algorithm" index="2kXL6a" />
      </concept>
      <concept id="8826553002992674450" name="DQLineage.structure.LE_SourceReference" flags="ng" index="2kXL6y">
        <reference id="8826553002992674453" name="source" index="2kXL6_" />
      </concept>
      <concept id="8826553002992674447" name="DQLineage.structure.LE_ProcessStepReference" flags="ng" index="2kXL6Z">
        <reference id="8826553002992674448" name="reference" index="2kXL6w" />
      </concept>
      <concept id="8826553002992283088" name="DQLineage.structure.LE_ProcessStep" flags="ng" index="2kZhFw">
        <child id="8826553002992901731" name="description" index="2kWE_j" />
        <child id="8826553002992901738" name="rationale" index="2kWE_q" />
        <child id="8826553002992678551" name="processingInformation" index="2kXK6B" />
        <child id="8826553002992674455" name="source" index="2kXL6B" />
        <child id="8826553002992674458" name="output" index="2kXL6E" />
        <child id="4723180301181674822" name="processor" index="3vwBSN" />
      </concept>
      <concept id="8826553002992283078" name="DQLineage.structure.LI_Lineage" flags="ng" index="2kZhFQ">
        <child id="8826553002992811392" name="statement" index="2kXgEK" />
        <child id="8826553002992678546" name="source" index="2kXK6y" />
        <child id="8826553002992678548" name="processStep" index="2kXK6$" />
      </concept>
      <concept id="8826553002992283081" name="DQLineage.structure.LE_Source" flags="ng" index="2kZhFT">
        <child id="8826553002992901754" name="description" index="2kWE_a" />
        <child id="8826553002992674477" name="sourceStep" index="2kXL6t" />
      </concept>
    </language>
    <language id="ceab5195-25ea-4f22-9b92-103b95ca8c0c" name="jetbrains.mps.lang.core">
      <concept id="1133920641626" name="jetbrains.mps.lang.core.structure.BaseConcept" flags="ng" index="2VYdi">
        <property id="1193676396447" name="virtualPackage" index="3GE5qa" />
      </concept>
      <concept id="1169194658468" name="jetbrains.mps.lang.core.structure.INamedConcept" flags="ng" index="TrEIO">
        <property id="1169194664001" name="name" index="TrG5h" />
      </concept>
    </language>
    <language id="c7fb639f-be78-4307-89b0-b5959c3fa8c8" name="jetbrains.mps.lang.text">
      <concept id="155656958578482948" name="jetbrains.mps.lang.text.structure.Word" flags="nn" index="3oM_SD">
        <property id="155656958578482949" name="value" index="3oM_SC" />
      </concept>
      <concept id="2535923850359206929" name="jetbrains.mps.lang.text.structure.Text" flags="nn" index="1Pa9Pv">
        <child id="2535923850359210936" name="lines" index="1PaQFQ" />
      </concept>
      <concept id="2535923850359271782" name="jetbrains.mps.lang.text.structure.Line" flags="nn" index="1PaTwC">
        <child id="2535923850359271783" name="elements" index="1PaTwD" />
      </concept>
    </language>
    <language id="fab11043-404a-46cc-b039-37dc7a2d7229" name="CI_Package">
      <concept id="5365554244736800010" name="CI_Package.structure.ContactReference" flags="ng" index="mPx8y">
        <property id="9081222512149915869" name="contactMethod" index="3kZLcv" />
        <reference id="5365554244736800013" name="contactRef" index="mPx8_" />
      </concept>
      <concept id="4188560045685070475" name="CI_Package.structure.NamedCitation" flags="ng" index="1hkLIw">
        <child id="4188560045685149444" name="aCitation" index="1hlsSJ" />
      </concept>
      <concept id="9081222512170317592" name="CI_Package.structure.NamedContact" flags="ng" index="3idWNq">
        <child id="9081222512170317595" name="aContact" index="3idWNp" />
      </concept>
      <concept id="4723180301162236988" name="CI_Package.structure.CI_Citation" flags="ng" index="3tqtt9">
        <property id="4723180301162316665" name="presentationForm" index="3tqLwc" />
        <property id="4723180301162315957" name="title" index="3tqLJ0" />
        <child id="4723180301162745962" name="citedResponsibleParty" index="3tooGv" />
      </concept>
      <concept id="4723180301162316656" name="CI_Package.structure.CI_Organisation" flags="ng" index="3tqLw5">
        <property id="4723180301168515501" name="name" index="3sMobo" />
      </concept>
      <concept id="4723180301162316566" name="CI_Package.structure.CI_Contact" flags="ng" index="3tqLxz">
        <child id="4723180301163887004" name="phone" index="3tsIbD" />
        <child id="6008101464817180162" name="contactInstructions" index="1zzSTL" />
      </concept>
      <concept id="4723180301162316410" name="CI_Package.structure.CI_ResponsibleParty" flags="ng" index="3tqL$f">
        <property id="4723180301162316507" name="role" index="3tqLAI" />
        <child id="4723180301168515509" name="organisationName" index="3sMob0" />
        <child id="4723180301168515518" name="contactInfo" index="3sMobb" />
      </concept>
      <concept id="4723180301162316517" name="CI_Package.structure.CI_Telephone" flags="ng" index="3tqLAg">
        <property id="4723180301162316524" name="numberType" index="3tqLAp" />
      </concept>
    </language>
  </registry>
  <node concept="26uhAj" id="3D6IRTQy$Xt">
    <property role="TrG5h" value="Invasive Alien Species in Europe App" />
    <property role="3GE5qa" value="Lineage Documents" />
    <node concept="2kZhFQ" id="3D6IRTQy$Xu" role="26uhAI">
      <node concept="2kZhFT" id="4OoJ5EINaPa" role="2kXK6y">
        <property role="TrG5h" value="citizenObservationPhoto" />
        <node concept="2kXL6Z" id="4OoJ5EINaPc" role="2kXL6t">
          <ref role="2kXL6w" node="4OoJ5EINaNz" resolve="Citizen identifies attributes" />
        </node>
        <node concept="2kXL6Z" id="4OoJ5EINaPW" role="2kXL6t">
          <ref role="2kXL6w" node="4OoJ5EINaPd" resolve="Citizen submits observation data to data management system" />
        </node>
      </node>
      <node concept="2kZhFT" id="4OoJ5EINaPb" role="2kXK6y">
        <property role="TrG5h" value="citizenObservationAttributes" />
        <node concept="2kXL6Z" id="4OoJ5EINaPY" role="2kXL6t">
          <ref role="2kXL6w" node="4OoJ5EINaPd" resolve="Citizen submits observation data to data management system" />
        </node>
      </node>
      <node concept="2kZhFT" id="4OoJ5EINaPS" role="2kXK6y">
        <property role="TrG5h" value="citizenObservationLocation" />
        <node concept="2kXL6Z" id="4OoJ5EINaUt" role="2kXL6t">
          <ref role="2kXL6w" node="4OoJ5EINaPd" resolve="Citizen submits observation data to data management system" />
        </node>
        <node concept="1Pa9Pv" id="4OoJ5EINaTT" role="2kWE_a">
          <node concept="1PaTwC" id="4OoJ5EINaTU" role="1PaQFQ">
            <node concept="3oM_SD" id="4OoJ5EINaTW" role="1PaTwD">
              <property role="3oM_SC" value="Location" />
            </node>
            <node concept="3oM_SD" id="4OoJ5EINaTX" role="1PaTwD">
              <property role="3oM_SC" value="of" />
            </node>
            <node concept="3oM_SD" id="4OoJ5EINaTY" role="1PaTwD">
              <property role="3oM_SC" value="the" />
            </node>
            <node concept="3oM_SD" id="4OoJ5EINaTZ" role="1PaTwD">
              <property role="3oM_SC" value="specimen" />
            </node>
            <node concept="3oM_SD" id="4OoJ5EINaU0" role="1PaTwD">
              <property role="3oM_SC" value="was" />
            </node>
            <node concept="3oM_SD" id="4OoJ5EINaU1" role="1PaTwD">
              <property role="3oM_SC" value="found," />
            </node>
            <node concept="3oM_SD" id="4OoJ5EINaU2" role="1PaTwD">
              <property role="3oM_SC" value="mobile" />
            </node>
            <node concept="3oM_SD" id="4OoJ5EINaU3" role="1PaTwD">
              <property role="3oM_SC" value="device" />
            </node>
            <node concept="3oM_SD" id="4OoJ5EINaU4" role="1PaTwD">
              <property role="3oM_SC" value="location" />
            </node>
            <node concept="3oM_SD" id="4OoJ5EINaU5" role="1PaTwD">
              <property role="3oM_SC" value="edited" />
            </node>
            <node concept="3oM_SD" id="4OoJ5EINaU6" role="1PaTwD">
              <property role="3oM_SC" value="by" />
            </node>
            <node concept="3oM_SD" id="4OoJ5EINaU7" role="1PaTwD">
              <property role="3oM_SC" value="the" />
            </node>
            <node concept="3oM_SD" id="4OoJ5EINaU8" role="1PaTwD">
              <property role="3oM_SC" value="citizen" />
            </node>
          </node>
        </node>
      </node>
      <node concept="2kZhFT" id="4OoJ5EINaU9" role="2kXK6y">
        <property role="TrG5h" value="citizenObservationDateTime" />
        <node concept="2kXL6Z" id="4OoJ5EINaUr" role="2kXL6t">
          <ref role="2kXL6w" node="4OoJ5EINaPd" resolve="Citizen submits observation data to data management system" />
        </node>
        <node concept="1Pa9Pv" id="4OoJ5EINaUa" role="2kWE_a">
          <node concept="1PaTwC" id="4OoJ5EINaUb" role="1PaQFQ">
            <node concept="3oM_SD" id="4OoJ5EINaUd" role="1PaTwD">
              <property role="3oM_SC" value="Date" />
            </node>
            <node concept="3oM_SD" id="4OoJ5EINaUe" role="1PaTwD">
              <property role="3oM_SC" value="and" />
            </node>
            <node concept="3oM_SD" id="4OoJ5EINaUf" role="1PaTwD">
              <property role="3oM_SC" value="time" />
            </node>
            <node concept="3oM_SD" id="4OoJ5EINaUg" role="1PaTwD">
              <property role="3oM_SC" value="the" />
            </node>
            <node concept="3oM_SD" id="4OoJ5EINaUh" role="1PaTwD">
              <property role="3oM_SC" value="specimen" />
            </node>
            <node concept="3oM_SD" id="4OoJ5EINaUi" role="1PaTwD">
              <property role="3oM_SC" value="was" />
            </node>
            <node concept="3oM_SD" id="4OoJ5EINaUj" role="1PaTwD">
              <property role="3oM_SC" value="found," />
            </node>
            <node concept="3oM_SD" id="4OoJ5EINaUk" role="1PaTwD">
              <property role="3oM_SC" value="mobile" />
            </node>
            <node concept="3oM_SD" id="4OoJ5EINaUl" role="1PaTwD">
              <property role="3oM_SC" value="device" />
            </node>
            <node concept="3oM_SD" id="4OoJ5EINaUm" role="1PaTwD">
              <property role="3oM_SC" value="date/time" />
            </node>
            <node concept="3oM_SD" id="4OoJ5EINaUn" role="1PaTwD">
              <property role="3oM_SC" value="edited" />
            </node>
            <node concept="3oM_SD" id="4OoJ5EINaUo" role="1PaTwD">
              <property role="3oM_SC" value="by" />
            </node>
            <node concept="3oM_SD" id="4OoJ5EINaUp" role="1PaTwD">
              <property role="3oM_SC" value="the" />
            </node>
            <node concept="3oM_SD" id="4OoJ5EINaUq" role="1PaTwD">
              <property role="3oM_SC" value="citizen" />
            </node>
          </node>
        </node>
      </node>
      <node concept="2kZhFT" id="4OoJ5EINaUv" role="2kXK6y">
        <property role="TrG5h" value="citizenObservationComment" />
        <node concept="2kXL6Z" id="4OoJ5EINaUH" role="2kXL6t">
          <ref role="2kXL6w" node="4OoJ5EINaMZ" resolve="Citizen adds comment" />
        </node>
        <node concept="2kXL6Z" id="4OoJ5EINaUJ" role="2kXL6t">
          <ref role="2kXL6w" node="4OoJ5EINaPd" resolve="Citizen submits observation data to data management system" />
        </node>
        <node concept="1Pa9Pv" id="4OoJ5EINaUw" role="2kWE_a">
          <node concept="1PaTwC" id="4OoJ5EINaUx" role="1PaQFQ">
            <node concept="3oM_SD" id="4OoJ5EINaUz" role="1PaTwD">
              <property role="3oM_SC" value="Free" />
            </node>
            <node concept="3oM_SD" id="4OoJ5EINaU$" role="1PaTwD">
              <property role="3oM_SC" value="text" />
            </node>
            <node concept="3oM_SD" id="4OoJ5EINaU_" role="1PaTwD">
              <property role="3oM_SC" value="comment" />
            </node>
            <node concept="3oM_SD" id="4OoJ5EINaUA" role="1PaTwD">
              <property role="3oM_SC" value="collected" />
            </node>
            <node concept="3oM_SD" id="4OoJ5EINaUB" role="1PaTwD">
              <property role="3oM_SC" value="from" />
            </node>
            <node concept="3oM_SD" id="4OoJ5EINaUC" role="1PaTwD">
              <property role="3oM_SC" value="the" />
            </node>
            <node concept="3oM_SD" id="4OoJ5EINaUD" role="1PaTwD">
              <property role="3oM_SC" value="citizen" />
            </node>
            <node concept="3oM_SD" id="4OoJ5EINaUE" role="1PaTwD">
              <property role="3oM_SC" value="using" />
            </node>
            <node concept="3oM_SD" id="4OoJ5EINaUF" role="1PaTwD">
              <property role="3oM_SC" value="the" />
            </node>
            <node concept="3oM_SD" id="4OoJ5EINaUG" role="1PaTwD">
              <property role="3oM_SC" value="APP" />
            </node>
          </node>
        </node>
      </node>
      <node concept="2kZhFT" id="4OoJ5EINaUL" role="2kXK6y">
        <property role="TrG5h" value="citizenObservationDataSet" />
        <node concept="1Pa9Pv" id="4OoJ5EINaUM" role="2kWE_a">
          <node concept="1PaTwC" id="4OoJ5EINaUN" role="1PaQFQ">
            <node concept="3oM_SD" id="4OoJ5EINaUP" role="1PaTwD">
              <property role="3oM_SC" value="Submitted" />
            </node>
            <node concept="3oM_SD" id="4OoJ5EINaUQ" role="1PaTwD">
              <property role="3oM_SC" value="observation" />
            </node>
            <node concept="3oM_SD" id="4OoJ5EINaUR" role="1PaTwD">
              <property role="3oM_SC" value="data" />
            </node>
          </node>
        </node>
        <node concept="2kXL6Z" id="4OoJ5EINaUS" role="2kXL6t">
          <ref role="2kXL6w" node="4OoJ5EINaQ1" resolve="Photo moderation (pre-validation)" />
        </node>
      </node>
      <node concept="2kZhFT" id="4OoJ5EINaUT" role="2kXK6y">
        <property role="TrG5h" value="moderatedPhoto" />
      </node>
      <node concept="2kZhFT" id="4OoJ5EINaUU" role="2kXK6y">
        <property role="TrG5h" value="moderatedComment" />
      </node>
      <node concept="2kZhFw" id="3D6IRTQy$Zn" role="2kXK6$">
        <property role="TrG5h" value="Citizen takes photo" />
        <node concept="1Pa9Pv" id="3D6IRTQy$Zo" role="2kWE_j">
          <node concept="1PaTwC" id="3D6IRTQy$Zp" role="1PaQFQ">
            <node concept="3oM_SD" id="3D6IRTQy$Zr" role="1PaTwD">
              <property role="3oM_SC" value="Citizen" />
            </node>
            <node concept="3oM_SD" id="3D6IRTQy$Zs" role="1PaTwD">
              <property role="3oM_SC" value="take" />
            </node>
            <node concept="3oM_SD" id="3D6IRTQy$Zt" role="1PaTwD">
              <property role="3oM_SC" value="a" />
            </node>
            <node concept="3oM_SD" id="3D6IRTQy$Zu" role="1PaTwD">
              <property role="3oM_SC" value="photo" />
            </node>
            <node concept="3oM_SD" id="3D6IRTQy$Zv" role="1PaTwD">
              <property role="3oM_SC" value="of" />
            </node>
            <node concept="3oM_SD" id="3D6IRTQy$Zw" role="1PaTwD">
              <property role="3oM_SC" value="the" />
            </node>
            <node concept="3oM_SD" id="3D6IRTQy$Zx" role="1PaTwD">
              <property role="3oM_SC" value="Specimen" />
            </node>
          </node>
        </node>
        <node concept="1Pa9Pv" id="3D6IRTQy$Zy" role="2kWE_q">
          <node concept="1PaTwC" id="3D6IRTQy$Zz" role="1PaQFQ">
            <node concept="3oM_SD" id="3D6IRTQy$Z_" role="1PaTwD">
              <property role="3oM_SC" value="Required" />
            </node>
            <node concept="3oM_SD" id="3D6IRTQy$ZA" role="1PaTwD">
              <property role="3oM_SC" value="for" />
            </node>
            <node concept="3oM_SD" id="3D6IRTQy$ZB" role="1PaTwD">
              <property role="3oM_SC" value="AI" />
            </node>
            <node concept="3oM_SD" id="3D6IRTQy$ZC" role="1PaTwD">
              <property role="3oM_SC" value="and" />
            </node>
            <node concept="3oM_SD" id="3D6IRTQy$ZD" role="1PaTwD">
              <property role="3oM_SC" value="expert" />
            </node>
            <node concept="3oM_SD" id="3D6IRTQy$ZE" role="1PaTwD">
              <property role="3oM_SC" value="review" />
            </node>
          </node>
        </node>
      </node>
      <node concept="2kZhFw" id="4OoJ5EINaMn" role="2kXK6$">
        <property role="TrG5h" value="Citizen record location, date, time information" />
        <node concept="1Pa9Pv" id="4OoJ5EINaMo" role="2kWE_j">
          <node concept="1PaTwC" id="4OoJ5EINaMp" role="1PaQFQ">
            <node concept="3oM_SD" id="4OoJ5EINaMr" role="1PaTwD">
              <property role="3oM_SC" value="The" />
            </node>
            <node concept="3oM_SD" id="4OoJ5EINaMs" role="1PaTwD">
              <property role="3oM_SC" value="app" />
            </node>
            <node concept="3oM_SD" id="4OoJ5EINaMt" role="1PaTwD">
              <property role="3oM_SC" value="uses" />
            </node>
            <node concept="3oM_SD" id="4OoJ5EINaMu" role="1PaTwD">
              <property role="3oM_SC" value="the" />
            </node>
            <node concept="3oM_SD" id="4OoJ5EINaMv" role="1PaTwD">
              <property role="3oM_SC" value="mobile" />
            </node>
            <node concept="3oM_SD" id="4OoJ5EINaMw" role="1PaTwD">
              <property role="3oM_SC" value="devices" />
            </node>
            <node concept="3oM_SD" id="4OoJ5EINaMx" role="1PaTwD">
              <property role="3oM_SC" value="location," />
            </node>
            <node concept="3oM_SD" id="4OoJ5EINaMy" role="1PaTwD">
              <property role="3oM_SC" value="date" />
            </node>
            <node concept="3oM_SD" id="4OoJ5EINaMz" role="1PaTwD">
              <property role="3oM_SC" value="and" />
            </node>
            <node concept="3oM_SD" id="4OoJ5EINaM$" role="1PaTwD">
              <property role="3oM_SC" value="time" />
            </node>
            <node concept="3oM_SD" id="4OoJ5EINaM_" role="1PaTwD">
              <property role="3oM_SC" value="information" />
            </node>
            <node concept="3oM_SD" id="4OoJ5EINaMA" role="1PaTwD">
              <property role="3oM_SC" value="to" />
            </node>
            <node concept="3oM_SD" id="4OoJ5EINaMB" role="1PaTwD">
              <property role="3oM_SC" value="pre-populate" />
            </node>
            <node concept="3oM_SD" id="4OoJ5EINaMC" role="1PaTwD">
              <property role="3oM_SC" value="the" />
            </node>
            <node concept="3oM_SD" id="4OoJ5EINaMD" role="1PaTwD">
              <property role="3oM_SC" value="metadata;" />
            </node>
            <node concept="3oM_SD" id="4OoJ5EINaME" role="1PaTwD">
              <property role="3oM_SC" value="a" />
            </node>
            <node concept="3oM_SD" id="4OoJ5EINaMF" role="1PaTwD">
              <property role="3oM_SC" value="user" />
            </node>
            <node concept="3oM_SD" id="4OoJ5EINaMG" role="1PaTwD">
              <property role="3oM_SC" value="can" />
            </node>
            <node concept="3oM_SD" id="4OoJ5EINaMH" role="1PaTwD">
              <property role="3oM_SC" value="edit" />
            </node>
            <node concept="3oM_SD" id="4OoJ5EINaMI" role="1PaTwD">
              <property role="3oM_SC" value="the" />
            </node>
            <node concept="3oM_SD" id="4OoJ5EINaMJ" role="1PaTwD">
              <property role="3oM_SC" value="data" />
            </node>
            <node concept="3oM_SD" id="4OoJ5EINaMK" role="1PaTwD">
              <property role="3oM_SC" value="on" />
            </node>
            <node concept="3oM_SD" id="4OoJ5EINaML" role="1PaTwD">
              <property role="3oM_SC" value="the" />
            </node>
            <node concept="3oM_SD" id="4OoJ5EINaMM" role="1PaTwD">
              <property role="3oM_SC" value="submission." />
            </node>
          </node>
        </node>
        <node concept="1Pa9Pv" id="4OoJ5EINaMN" role="2kWE_q">
          <node concept="1PaTwC" id="4OoJ5EINaMO" role="1PaQFQ">
            <node concept="3oM_SD" id="4OoJ5EINaMQ" role="1PaTwD">
              <property role="3oM_SC" value="Users" />
            </node>
            <node concept="3oM_SD" id="4OoJ5EINaMR" role="1PaTwD">
              <property role="3oM_SC" value="time" />
            </node>
            <node concept="3oM_SD" id="4OoJ5EINaMS" role="1PaTwD">
              <property role="3oM_SC" value="or" />
            </node>
            <node concept="3oM_SD" id="4OoJ5EINaMT" role="1PaTwD">
              <property role="3oM_SC" value="location" />
            </node>
            <node concept="3oM_SD" id="4OoJ5EINaMU" role="1PaTwD">
              <property role="3oM_SC" value="may" />
            </node>
            <node concept="3oM_SD" id="4OoJ5EINaMV" role="1PaTwD">
              <property role="3oM_SC" value="need" />
            </node>
            <node concept="3oM_SD" id="4OoJ5EINaMW" role="1PaTwD">
              <property role="3oM_SC" value="to" />
            </node>
            <node concept="3oM_SD" id="4OoJ5EINaMX" role="1PaTwD">
              <property role="3oM_SC" value="be" />
            </node>
            <node concept="3oM_SD" id="4OoJ5EINaMY" role="1PaTwD">
              <property role="3oM_SC" value="corrected" />
            </node>
          </node>
        </node>
      </node>
      <node concept="2kZhFw" id="4OoJ5EINaMZ" role="2kXK6$">
        <property role="TrG5h" value="Citizen adds comment" />
        <node concept="1Pa9Pv" id="4OoJ5EINaN0" role="2kWE_j">
          <node concept="1PaTwC" id="4OoJ5EINaN1" role="1PaQFQ">
            <node concept="3oM_SD" id="4OoJ5EINaN3" role="1PaTwD">
              <property role="3oM_SC" value="Citizen" />
            </node>
            <node concept="3oM_SD" id="4OoJ5EINaN4" role="1PaTwD">
              <property role="3oM_SC" value="is" />
            </node>
            <node concept="3oM_SD" id="4OoJ5EINaN5" role="1PaTwD">
              <property role="3oM_SC" value="given" />
            </node>
            <node concept="3oM_SD" id="4OoJ5EINaN6" role="1PaTwD">
              <property role="3oM_SC" value="free" />
            </node>
            <node concept="3oM_SD" id="4OoJ5EINaN7" role="1PaTwD">
              <property role="3oM_SC" value="text" />
            </node>
            <node concept="3oM_SD" id="4OoJ5EINaN8" role="1PaTwD">
              <property role="3oM_SC" value="comment" />
            </node>
            <node concept="3oM_SD" id="4OoJ5EINaN9" role="1PaTwD">
              <property role="3oM_SC" value="section" />
            </node>
            <node concept="3oM_SD" id="4OoJ5EINaNa" role="1PaTwD">
              <property role="3oM_SC" value="to" />
            </node>
            <node concept="3oM_SD" id="4OoJ5EINaNb" role="1PaTwD">
              <property role="3oM_SC" value="add" />
            </node>
            <node concept="3oM_SD" id="4OoJ5EINaNc" role="1PaTwD">
              <property role="3oM_SC" value="additional" />
            </node>
            <node concept="3oM_SD" id="4OoJ5EINaNd" role="1PaTwD">
              <property role="3oM_SC" value="notes" />
            </node>
            <node concept="3oM_SD" id="4OoJ5EINaNe" role="1PaTwD">
              <property role="3oM_SC" value="to" />
            </node>
            <node concept="3oM_SD" id="4OoJ5EINaNf" role="1PaTwD">
              <property role="3oM_SC" value="the" />
            </node>
            <node concept="3oM_SD" id="4OoJ5EINaNg" role="1PaTwD">
              <property role="3oM_SC" value="observation" />
            </node>
          </node>
        </node>
        <node concept="1Pa9Pv" id="4OoJ5EINaNh" role="2kWE_q">
          <node concept="1PaTwC" id="4OoJ5EINaNi" role="1PaQFQ">
            <node concept="3oM_SD" id="4OoJ5EINaNk" role="1PaTwD">
              <property role="3oM_SC" value="A" />
            </node>
            <node concept="3oM_SD" id="4OoJ5EINaNl" role="1PaTwD">
              <property role="3oM_SC" value="citizen" />
            </node>
            <node concept="3oM_SD" id="4OoJ5EINaNm" role="1PaTwD">
              <property role="3oM_SC" value="may" />
            </node>
            <node concept="3oM_SD" id="4OoJ5EINaNn" role="1PaTwD">
              <property role="3oM_SC" value="have" />
            </node>
            <node concept="3oM_SD" id="4OoJ5EINaNo" role="1PaTwD">
              <property role="3oM_SC" value="additional" />
            </node>
            <node concept="3oM_SD" id="4OoJ5EINaNp" role="1PaTwD">
              <property role="3oM_SC" value="information," />
            </node>
            <node concept="3oM_SD" id="4OoJ5EINaNq" role="1PaTwD">
              <property role="3oM_SC" value="which" />
            </node>
            <node concept="3oM_SD" id="4OoJ5EINaNr" role="1PaTwD">
              <property role="3oM_SC" value="can" />
            </node>
            <node concept="3oM_SD" id="4OoJ5EINaNs" role="1PaTwD">
              <property role="3oM_SC" value="not" />
            </node>
            <node concept="3oM_SD" id="4OoJ5EINaNt" role="1PaTwD">
              <property role="3oM_SC" value="be" />
            </node>
            <node concept="3oM_SD" id="4OoJ5EINaNu" role="1PaTwD">
              <property role="3oM_SC" value="captured" />
            </node>
            <node concept="3oM_SD" id="4OoJ5EINaNv" role="1PaTwD">
              <property role="3oM_SC" value="by" />
            </node>
            <node concept="3oM_SD" id="4OoJ5EINaNw" role="1PaTwD">
              <property role="3oM_SC" value="the" />
            </node>
            <node concept="3oM_SD" id="4OoJ5EINaNx" role="1PaTwD">
              <property role="3oM_SC" value="in-APP" />
            </node>
            <node concept="3oM_SD" id="4OoJ5EINaNy" role="1PaTwD">
              <property role="3oM_SC" value="keys" />
            </node>
          </node>
        </node>
        <node concept="2kXL6y" id="4OoJ5EINaUI" role="2kXL6B">
          <ref role="2kXL6_" node="4OoJ5EINaUv" resolve="citizenObservationComment" />
        </node>
      </node>
      <node concept="2kZhFw" id="4OoJ5EINaNz" role="2kXK6$">
        <property role="TrG5h" value="Citizen identifies attributes" />
        <node concept="2kXL6y" id="4OoJ5EINaP9" role="2kXL6E">
          <ref role="2kXL6_" node="4OoJ5EINaPb" resolve="citizenObservationAttributes" />
        </node>
        <node concept="2kXL6y" id="4OoJ5EINaP8" role="2kXL6B">
          <ref role="2kXL6_" node="4OoJ5EINaPa" resolve="citizenObservationPhoto" />
        </node>
        <node concept="2kXL6v" id="4OoJ5EINaOB" role="2kXK6B">
          <node concept="2kXL67" id="4OoJ5EINaOQ" role="2kXL6a">
            <node concept="1Pa9Pv" id="4OoJ5EINaOR" role="2kWE_D">
              <node concept="1PaTwC" id="4OoJ5EINaOS" role="1PaQFQ">
                <node concept="3oM_SD" id="4OoJ5EINaOU" role="1PaTwD">
                  <property role="3oM_SC" value="Decision" />
                </node>
                <node concept="3oM_SD" id="4OoJ5EINaOV" role="1PaTwD">
                  <property role="3oM_SC" value="making" />
                </node>
                <node concept="3oM_SD" id="4OoJ5EINaOW" role="1PaTwD">
                  <property role="3oM_SC" value="tree" />
                </node>
                <node concept="3oM_SD" id="4OoJ5EINaOX" role="1PaTwD">
                  <property role="3oM_SC" value="for" />
                </node>
                <node concept="3oM_SD" id="4OoJ5EINaOY" role="1PaTwD">
                  <property role="3oM_SC" value="species" />
                </node>
                <node concept="3oM_SD" id="4OoJ5EINaOZ" role="1PaTwD">
                  <property role="3oM_SC" value="element" />
                </node>
                <node concept="3oM_SD" id="4OoJ5EINaP0" role="1PaTwD">
                  <property role="3oM_SC" value="identification" />
                </node>
                <node concept="3oM_SD" id="4OoJ5EINaP1" role="1PaTwD">
                  <property role="3oM_SC" value="url://reference_to_some_external_documentation" />
                </node>
              </node>
              <node concept="1PaTwC" id="4OoJ5EINaP2" role="1PaQFQ">
                <node concept="3oM_SD" id="4OoJ5EINaP3" role="1PaTwD">
                  <property role="3oM_SC" value="" />
                </node>
                <node concept="3oM_SD" id="4OoJ5EINaP4" role="1PaTwD">
                  <property role="3oM_SC" value="Fact" />
                </node>
                <node concept="3oM_SD" id="4OoJ5EINaP5" role="1PaTwD">
                  <property role="3oM_SC" value="sheet" />
                </node>
                <node concept="3oM_SD" id="4OoJ5EINaP6" role="1PaTwD">
                  <property role="3oM_SC" value="information" />
                </node>
                <node concept="3oM_SD" id="4OoJ5EINaP7" role="1PaTwD">
                  <property role="3oM_SC" value="url://reference_to_some_external_documentation" />
                </node>
              </node>
            </node>
          </node>
          <node concept="1Pa9Pv" id="4OoJ5EINaOC" role="2kWE_F">
            <node concept="1PaTwC" id="4OoJ5EINaOD" role="1PaQFQ">
              <node concept="3oM_SD" id="4OoJ5EINaOF" role="1PaTwD">
                <property role="3oM_SC" value="In" />
              </node>
              <node concept="3oM_SD" id="4OoJ5EINaOG" role="1PaTwD">
                <property role="3oM_SC" value="app" />
              </node>
              <node concept="3oM_SD" id="4OoJ5EINaOH" role="1PaTwD">
                <property role="3oM_SC" value="questions" />
              </node>
              <node concept="3oM_SD" id="4OoJ5EINaOI" role="1PaTwD">
                <property role="3oM_SC" value="and" />
              </node>
              <node concept="3oM_SD" id="4OoJ5EINaOJ" role="1PaTwD">
                <property role="3oM_SC" value="answers" />
              </node>
              <node concept="3oM_SD" id="4OoJ5EINaOK" role="1PaTwD">
                <property role="3oM_SC" value="to" />
              </node>
              <node concept="3oM_SD" id="4OoJ5EINaOL" role="1PaTwD">
                <property role="3oM_SC" value="identify" />
              </node>
              <node concept="3oM_SD" id="4OoJ5EINaOM" role="1PaTwD">
                <property role="3oM_SC" value="elements" />
              </node>
              <node concept="3oM_SD" id="4OoJ5EINaON" role="1PaTwD">
                <property role="3oM_SC" value="of" />
              </node>
              <node concept="3oM_SD" id="4OoJ5EINaOO" role="1PaTwD">
                <property role="3oM_SC" value="the" />
              </node>
              <node concept="3oM_SD" id="4OoJ5EINaOP" role="1PaTwD">
                <property role="3oM_SC" value="species" />
              </node>
            </node>
          </node>
        </node>
        <node concept="1Pa9Pv" id="4OoJ5EINaN$" role="2kWE_j">
          <node concept="1PaTwC" id="4OoJ5EINaN_" role="1PaQFQ">
            <node concept="3oM_SD" id="4OoJ5EINaNB" role="1PaTwD">
              <property role="3oM_SC" value="This" />
            </node>
            <node concept="3oM_SD" id="4OoJ5EINaNC" role="1PaTwD">
              <property role="3oM_SC" value="includes" />
            </node>
            <node concept="3oM_SD" id="4OoJ5EINaND" role="1PaTwD">
              <property role="3oM_SC" value="the" />
            </node>
            <node concept="3oM_SD" id="4OoJ5EINaNE" role="1PaTwD">
              <property role="3oM_SC" value="provision" />
            </node>
            <node concept="3oM_SD" id="4OoJ5EINaNF" role="1PaTwD">
              <property role="3oM_SC" value="of" />
            </node>
            <node concept="3oM_SD" id="4OoJ5EINaNG" role="1PaTwD">
              <property role="3oM_SC" value="fact" />
            </node>
            <node concept="3oM_SD" id="4OoJ5EINaNH" role="1PaTwD">
              <property role="3oM_SC" value="sheets," />
            </node>
            <node concept="3oM_SD" id="4OoJ5EINaNI" role="1PaTwD">
              <property role="3oM_SC" value="which" />
            </node>
            <node concept="3oM_SD" id="4OoJ5EINaNJ" role="1PaTwD">
              <property role="3oM_SC" value="describe" />
            </node>
            <node concept="3oM_SD" id="4OoJ5EINaNK" role="1PaTwD">
              <property role="3oM_SC" value="the" />
            </node>
            <node concept="3oM_SD" id="4OoJ5EINaNL" role="1PaTwD">
              <property role="3oM_SC" value="species" />
            </node>
            <node concept="3oM_SD" id="4OoJ5EINaNM" role="1PaTwD">
              <property role="3oM_SC" value="covered" />
            </node>
            <node concept="3oM_SD" id="4OoJ5EINaNN" role="1PaTwD">
              <property role="3oM_SC" value="by" />
            </node>
            <node concept="3oM_SD" id="4OoJ5EINaNO" role="1PaTwD">
              <property role="3oM_SC" value="this" />
            </node>
            <node concept="3oM_SD" id="4OoJ5EINaNP" role="1PaTwD">
              <property role="3oM_SC" value="particular" />
            </node>
            <node concept="3oM_SD" id="4OoJ5EINaNQ" role="1PaTwD">
              <property role="3oM_SC" value="mobile" />
            </node>
            <node concept="3oM_SD" id="4OoJ5EINaNR" role="1PaTwD">
              <property role="3oM_SC" value="application" />
            </node>
            <node concept="3oM_SD" id="4OoJ5EINaNS" role="1PaTwD">
              <property role="3oM_SC" value="and" />
            </node>
            <node concept="3oM_SD" id="4OoJ5EINaNT" role="1PaTwD">
              <property role="3oM_SC" value="provide" />
            </node>
            <node concept="3oM_SD" id="4OoJ5EINaNU" role="1PaTwD">
              <property role="3oM_SC" value="images" />
            </node>
            <node concept="3oM_SD" id="4OoJ5EINaNV" role="1PaTwD">
              <property role="3oM_SC" value="as" />
            </node>
            <node concept="3oM_SD" id="4OoJ5EINaNW" role="1PaTwD">
              <property role="3oM_SC" value="well" />
            </node>
            <node concept="3oM_SD" id="4OoJ5EINaNX" role="1PaTwD">
              <property role="3oM_SC" value="as" />
            </node>
            <node concept="3oM_SD" id="4OoJ5EINaNY" role="1PaTwD">
              <property role="3oM_SC" value="lists" />
            </node>
            <node concept="3oM_SD" id="4OoJ5EINaNZ" role="1PaTwD">
              <property role="3oM_SC" value="of" />
            </node>
            <node concept="3oM_SD" id="4OoJ5EINaO0" role="1PaTwD">
              <property role="3oM_SC" value="commonly" />
            </node>
            <node concept="3oM_SD" id="4OoJ5EINaO1" role="1PaTwD">
              <property role="3oM_SC" value="confused" />
            </node>
            <node concept="3oM_SD" id="4OoJ5EINaO2" role="1PaTwD">
              <property role="3oM_SC" value="species." />
            </node>
          </node>
          <node concept="1PaTwC" id="4OoJ5EINaO3" role="1PaQFQ">
            <node concept="3oM_SD" id="4OoJ5EINaO4" role="1PaTwD">
              <property role="3oM_SC" value="" />
            </node>
            <node concept="3oM_SD" id="4OoJ5EINaO5" role="1PaTwD">
              <property role="3oM_SC" value="Element" />
            </node>
            <node concept="3oM_SD" id="4OoJ5EINaO6" role="1PaTwD">
              <property role="3oM_SC" value="data" />
            </node>
            <node concept="3oM_SD" id="4OoJ5EINaO7" role="1PaTwD">
              <property role="3oM_SC" value="is" />
            </node>
            <node concept="3oM_SD" id="4OoJ5EINaO8" role="1PaTwD">
              <property role="3oM_SC" value="collected" />
            </node>
            <node concept="3oM_SD" id="4OoJ5EINaO9" role="1PaTwD">
              <property role="3oM_SC" value="through" />
            </node>
            <node concept="3oM_SD" id="4OoJ5EINaOa" role="1PaTwD">
              <property role="3oM_SC" value="an" />
            </node>
            <node concept="3oM_SD" id="4OoJ5EINaOb" role="1PaTwD">
              <property role="3oM_SC" value="in" />
            </node>
            <node concept="3oM_SD" id="4OoJ5EINaOc" role="1PaTwD">
              <property role="3oM_SC" value="app" />
            </node>
            <node concept="3oM_SD" id="4OoJ5EINaOd" role="1PaTwD">
              <property role="3oM_SC" value="key" />
            </node>
            <node concept="3oM_SD" id="4OoJ5EINaOe" role="1PaTwD">
              <property role="3oM_SC" value="pad" />
            </node>
          </node>
        </node>
        <node concept="1Pa9Pv" id="4OoJ5EINaOf" role="2kWE_q">
          <node concept="1PaTwC" id="4OoJ5EINaOg" role="1PaQFQ">
            <node concept="3oM_SD" id="4OoJ5EINaOi" role="1PaTwD">
              <property role="3oM_SC" value="avoid" />
            </node>
            <node concept="3oM_SD" id="4OoJ5EINaOj" role="1PaTwD">
              <property role="3oM_SC" value="mis-identification" />
            </node>
            <node concept="3oM_SD" id="4OoJ5EINaOk" role="1PaTwD">
              <property role="3oM_SC" value="of" />
            </node>
            <node concept="3oM_SD" id="4OoJ5EINaOl" role="1PaTwD">
              <property role="3oM_SC" value="species" />
            </node>
            <node concept="3oM_SD" id="4OoJ5EINaOm" role="1PaTwD">
              <property role="3oM_SC" value="that" />
            </node>
            <node concept="3oM_SD" id="4OoJ5EINaOn" role="1PaTwD">
              <property role="3oM_SC" value="could" />
            </node>
            <node concept="3oM_SD" id="4OoJ5EINaOo" role="1PaTwD">
              <property role="3oM_SC" value="be" />
            </node>
            <node concept="3oM_SD" id="4OoJ5EINaOp" role="1PaTwD">
              <property role="3oM_SC" value="confused" />
            </node>
            <node concept="3oM_SD" id="4OoJ5EINaOq" role="1PaTwD">
              <property role="3oM_SC" value="with" />
            </node>
            <node concept="3oM_SD" id="4OoJ5EINaOr" role="1PaTwD">
              <property role="3oM_SC" value="the" />
            </node>
            <node concept="3oM_SD" id="4OoJ5EINaOs" role="1PaTwD">
              <property role="3oM_SC" value="targeted" />
            </node>
            <node concept="3oM_SD" id="4OoJ5EINaOt" role="1PaTwD">
              <property role="3oM_SC" value="ones" />
            </node>
            <node concept="3oM_SD" id="4OoJ5EINaOu" role="1PaTwD">
              <property role="3oM_SC" value="with" />
            </node>
            <node concept="3oM_SD" id="4OoJ5EINaOv" role="1PaTwD">
              <property role="3oM_SC" value="a" />
            </node>
            <node concept="3oM_SD" id="4OoJ5EINaOw" role="1PaTwD">
              <property role="3oM_SC" value="simple" />
            </node>
            <node concept="3oM_SD" id="4OoJ5EINaOx" role="1PaTwD">
              <property role="3oM_SC" value="user" />
            </node>
            <node concept="3oM_SD" id="4OoJ5EINaOy" role="1PaTwD">
              <property role="3oM_SC" value="interface" />
            </node>
            <node concept="3oM_SD" id="4OoJ5EINaOz" role="1PaTwD">
              <property role="3oM_SC" value="and" />
            </node>
            <node concept="3oM_SD" id="4OoJ5EINaO$" role="1PaTwD">
              <property role="3oM_SC" value="fact" />
            </node>
            <node concept="3oM_SD" id="4OoJ5EINaO_" role="1PaTwD">
              <property role="3oM_SC" value="sheet" />
            </node>
            <node concept="3oM_SD" id="4OoJ5EINaOA" role="1PaTwD">
              <property role="3oM_SC" value="information" />
            </node>
          </node>
        </node>
      </node>
      <node concept="2kZhFw" id="4OoJ5EINaPd" role="2kXK6$">
        <property role="TrG5h" value="Citizen submits observation data to data management system" />
        <node concept="2kXL6y" id="4OoJ5EINaQ0" role="2kXL6E">
          <ref role="2kXL6_" node="4OoJ5EINaUL" resolve="citizenObservationDataSet" />
        </node>
        <node concept="2kXL6y" id="4OoJ5EINaPV" role="2kXL6B">
          <ref role="2kXL6_" node="4OoJ5EINaPa" resolve="citizenObservationPhoto" />
        </node>
        <node concept="2kXL6y" id="4OoJ5EINaPX" role="2kXL6B">
          <ref role="2kXL6_" node="4OoJ5EINaPb" resolve="citizenObservationAttributes" />
        </node>
        <node concept="1Pa9Pv" id="4OoJ5EINaPe" role="2kWE_j">
          <node concept="1PaTwC" id="4OoJ5EINaPg" role="1PaQFQ">
            <node concept="3oM_SD" id="4OoJ5EINaPi" role="1PaTwD">
              <property role="3oM_SC" value="Having" />
            </node>
            <node concept="3oM_SD" id="4OoJ5EINaPj" role="1PaTwD">
              <property role="3oM_SC" value="completed" />
            </node>
            <node concept="3oM_SD" id="4OoJ5EINaPk" role="1PaTwD">
              <property role="3oM_SC" value="the" />
            </node>
            <node concept="3oM_SD" id="4OoJ5EINaPl" role="1PaTwD">
              <property role="3oM_SC" value="data" />
            </node>
            <node concept="3oM_SD" id="4OoJ5EINaPm" role="1PaTwD">
              <property role="3oM_SC" value="collection" />
            </node>
            <node concept="3oM_SD" id="4OoJ5EINaPn" role="1PaTwD">
              <property role="3oM_SC" value="and" />
            </node>
            <node concept="3oM_SD" id="4OoJ5EINaPo" role="1PaTwD">
              <property role="3oM_SC" value="identification" />
            </node>
            <node concept="3oM_SD" id="4OoJ5EINaPp" role="1PaTwD">
              <property role="3oM_SC" value="the" />
            </node>
            <node concept="3oM_SD" id="4OoJ5EINaPq" role="1PaTwD">
              <property role="3oM_SC" value="citizen" />
            </node>
            <node concept="3oM_SD" id="4OoJ5EINaPr" role="1PaTwD">
              <property role="3oM_SC" value="uses" />
            </node>
            <node concept="3oM_SD" id="4OoJ5EINaPs" role="1PaTwD">
              <property role="3oM_SC" value="the" />
            </node>
            <node concept="3oM_SD" id="4OoJ5EINaPt" role="1PaTwD">
              <property role="3oM_SC" value="in" />
            </node>
            <node concept="3oM_SD" id="4OoJ5EINaPu" role="1PaTwD">
              <property role="3oM_SC" value="app" />
            </node>
            <node concept="3oM_SD" id="4OoJ5EINaPv" role="1PaTwD">
              <property role="3oM_SC" value="submit" />
            </node>
            <node concept="3oM_SD" id="4OoJ5EINaPw" role="1PaTwD">
              <property role="3oM_SC" value="button." />
            </node>
          </node>
          <node concept="1PaTwC" id="4OoJ5EINaPx" role="1PaQFQ">
            <node concept="3oM_SD" id="4OoJ5EINaPy" role="1PaTwD">
              <property role="3oM_SC" value="" />
            </node>
            <node concept="3oM_SD" id="4OoJ5EINaPz" role="1PaTwD">
              <property role="3oM_SC" value="Data" />
            </node>
            <node concept="3oM_SD" id="4OoJ5EINaP$" role="1PaTwD">
              <property role="3oM_SC" value="is" />
            </node>
            <node concept="3oM_SD" id="4OoJ5EINaP_" role="1PaTwD">
              <property role="3oM_SC" value="transmitted" />
            </node>
            <node concept="3oM_SD" id="4OoJ5EINaPA" role="1PaTwD">
              <property role="3oM_SC" value="to" />
            </node>
            <node concept="3oM_SD" id="4OoJ5EINaPB" role="1PaTwD">
              <property role="3oM_SC" value="the" />
            </node>
            <node concept="3oM_SD" id="4OoJ5EINaPC" role="1PaTwD">
              <property role="3oM_SC" value="data" />
            </node>
            <node concept="3oM_SD" id="4OoJ5EINaPD" role="1PaTwD">
              <property role="3oM_SC" value="management" />
            </node>
            <node concept="3oM_SD" id="4OoJ5EINaPE" role="1PaTwD">
              <property role="3oM_SC" value="system" />
            </node>
          </node>
        </node>
        <node concept="1Pa9Pv" id="4OoJ5EINaPF" role="2kWE_q">
          <node concept="1PaTwC" id="4OoJ5EINaPG" role="1PaQFQ">
            <node concept="3oM_SD" id="4OoJ5EINaPI" role="1PaTwD">
              <property role="3oM_SC" value="Citizen" />
            </node>
            <node concept="3oM_SD" id="4OoJ5EINaPJ" role="1PaTwD">
              <property role="3oM_SC" value="observation" />
            </node>
            <node concept="3oM_SD" id="4OoJ5EINaPK" role="1PaTwD">
              <property role="3oM_SC" value="data" />
            </node>
            <node concept="3oM_SD" id="4OoJ5EINaPL" role="1PaTwD">
              <property role="3oM_SC" value="requires" />
            </node>
            <node concept="3oM_SD" id="4OoJ5EINaPM" role="1PaTwD">
              <property role="3oM_SC" value="further" />
            </node>
            <node concept="3oM_SD" id="4OoJ5EINaPN" role="1PaTwD">
              <property role="3oM_SC" value="processing." />
            </node>
            <node concept="3oM_SD" id="4OoJ5EINaPO" role="1PaTwD">
              <property role="3oM_SC" value="(AI" />
            </node>
            <node concept="3oM_SD" id="4OoJ5EINaPP" role="1PaTwD">
              <property role="3oM_SC" value="and" />
            </node>
            <node concept="3oM_SD" id="4OoJ5EINaPQ" role="1PaTwD">
              <property role="3oM_SC" value="expert" />
            </node>
            <node concept="3oM_SD" id="4OoJ5EINaPR" role="1PaTwD">
              <property role="3oM_SC" value="validation.)" />
            </node>
          </node>
        </node>
        <node concept="2kXL6y" id="4OoJ5EINaUs" role="2kXL6B">
          <ref role="2kXL6_" node="4OoJ5EINaU9" resolve="citizenObservationDateTime" />
        </node>
        <node concept="2kXL6y" id="4OoJ5EINaUu" role="2kXL6B">
          <ref role="2kXL6_" node="4OoJ5EINaPS" resolve="citizenObservationLocation" />
        </node>
        <node concept="2kXL6y" id="4OoJ5EINaUK" role="2kXL6B">
          <ref role="2kXL6_" node="4OoJ5EINaUv" resolve="citizenObservationComment" />
        </node>
      </node>
      <node concept="2kZhFw" id="4OoJ5EINaQ1" role="2kXK6$">
        <property role="TrG5h" value="Photo moderation (pre-validation)" />
        <node concept="3tqL$f" id="4OoJ5EINaSF" role="3vwBSN">
          <property role="3tqLAI" value="46c6RmsTKo_/processor" />
          <node concept="3tqLw5" id="4OoJ5EINaSG" role="3sMob0">
            <property role="3sMobo" value="Google" />
          </node>
        </node>
        <node concept="2kXL6y" id="4OoJ5EINaSE" role="2kXL6B">
          <ref role="2kXL6_" node="4OoJ5EINaUL" resolve="citizenObservationDataSet" />
        </node>
        <node concept="2kXL6v" id="4OoJ5EINaRz" role="2kXK6B">
          <node concept="2kXL67" id="4OoJ5EINaRG" role="2kXL6a">
            <node concept="1Pa9Pv" id="4OoJ5EINaRH" role="2kWE_D">
              <node concept="1PaTwC" id="4OoJ5EINaRI" role="1PaQFQ">
                <node concept="3oM_SD" id="4OoJ5EINaRK" role="1PaTwD">
                  <property role="3oM_SC" value="Implements" />
                </node>
                <node concept="3oM_SD" id="4OoJ5EINaRL" role="1PaTwD">
                  <property role="3oM_SC" value="a" />
                </node>
                <node concept="3oM_SD" id="4OoJ5EINaRM" role="1PaTwD">
                  <property role="3oM_SC" value="generic" />
                </node>
                <node concept="3oM_SD" id="4OoJ5EINaRN" role="1PaTwD">
                  <property role="3oM_SC" value="feature" />
                </node>
                <node concept="3oM_SD" id="4OoJ5EINaRO" role="1PaTwD">
                  <property role="3oM_SC" value="extraction" />
                </node>
                <node concept="3oM_SD" id="4OoJ5EINaRP" role="1PaTwD">
                  <property role="3oM_SC" value="algorithms" />
                </node>
              </node>
              <node concept="1PaTwC" id="4OoJ5EINaRQ" role="1PaQFQ">
                <node concept="3oM_SD" id="4OoJ5EINaRR" role="1PaTwD">
                  <property role="3oM_SC" value="" />
                </node>
                <node concept="3oM_SD" id="4OoJ5EINaRS" role="1PaTwD">
                  <property role="3oM_SC" value="URL://" />
                </node>
                <node concept="3oM_SD" id="4OoJ5EINaRT" role="1PaTwD">
                  <property role="3oM_SC" value="AZURE" />
                </node>
                <node concept="3oM_SD" id="4OoJ5EINaRU" role="1PaTwD">
                  <property role="3oM_SC" value="cognitive" />
                </node>
                <node concept="3oM_SD" id="4OoJ5EINaRV" role="1PaTwD">
                  <property role="3oM_SC" value="vision" />
                </node>
                <node concept="3oM_SD" id="4OoJ5EINaRW" role="1PaTwD">
                  <property role="3oM_SC" value="services" />
                </node>
                <node concept="3oM_SD" id="4OoJ5EINaRX" role="1PaTwD">
                  <property role="3oM_SC" value="documentation" />
                </node>
                <node concept="3oM_SD" id="4OoJ5EINaRY" role="1PaTwD">
                  <property role="3oM_SC" value="..." />
                </node>
              </node>
            </node>
          </node>
          <node concept="1Pa9Pv" id="4OoJ5EINaR$" role="2kWE_F">
            <node concept="1PaTwC" id="4OoJ5EINaR_" role="1PaQFQ">
              <node concept="3oM_SD" id="4OoJ5EINaRB" role="1PaTwD">
                <property role="3oM_SC" value="Microsoft" />
              </node>
              <node concept="3oM_SD" id="4OoJ5EINaRC" role="1PaTwD">
                <property role="3oM_SC" value="Cognitive" />
              </node>
              <node concept="3oM_SD" id="4OoJ5EINaRD" role="1PaTwD">
                <property role="3oM_SC" value="Services" />
              </node>
              <node concept="3oM_SD" id="4OoJ5EINaRE" role="1PaTwD">
                <property role="3oM_SC" value="Computer" />
              </node>
              <node concept="3oM_SD" id="4OoJ5EINaRF" role="1PaTwD">
                <property role="3oM_SC" value="Vision" />
              </node>
            </node>
          </node>
        </node>
        <node concept="2kXL6v" id="4OoJ5EINaRZ" role="2kXK6B">
          <node concept="2kXL67" id="4OoJ5EINaSo" role="2kXL6a">
            <node concept="1Pa9Pv" id="4OoJ5EINaSp" role="2kWE_D">
              <node concept="1PaTwC" id="4OoJ5EINaSq" role="1PaQFQ">
                <node concept="3oM_SD" id="4OoJ5EINaSs" role="1PaTwD">
                  <property role="3oM_SC" value="Implements" />
                </node>
                <node concept="3oM_SD" id="4OoJ5EINaSt" role="1PaTwD">
                  <property role="3oM_SC" value="a" />
                </node>
                <node concept="3oM_SD" id="4OoJ5EINaSu" role="1PaTwD">
                  <property role="3oM_SC" value="generic" />
                </node>
                <node concept="3oM_SD" id="4OoJ5EINaSv" role="1PaTwD">
                  <property role="3oM_SC" value="feature" />
                </node>
                <node concept="3oM_SD" id="4OoJ5EINaSw" role="1PaTwD">
                  <property role="3oM_SC" value="extraction" />
                </node>
                <node concept="3oM_SD" id="4OoJ5EINaSx" role="1PaTwD">
                  <property role="3oM_SC" value="algorithms" />
                </node>
              </node>
              <node concept="1PaTwC" id="4OoJ5EINaSy" role="1PaQFQ">
                <node concept="3oM_SD" id="4OoJ5EINaSz" role="1PaTwD">
                  <property role="3oM_SC" value="" />
                </node>
                <node concept="3oM_SD" id="4OoJ5EINaS$" role="1PaTwD">
                  <property role="3oM_SC" value="URL://" />
                </node>
                <node concept="3oM_SD" id="4OoJ5EINaS_" role="1PaTwD">
                  <property role="3oM_SC" value="GOOGLE" />
                </node>
                <node concept="3oM_SD" id="4OoJ5EINaSA" role="1PaTwD">
                  <property role="3oM_SC" value="VISION" />
                </node>
                <node concept="3oM_SD" id="4OoJ5EINaSB" role="1PaTwD">
                  <property role="3oM_SC" value="services" />
                </node>
                <node concept="3oM_SD" id="4OoJ5EINaSC" role="1PaTwD">
                  <property role="3oM_SC" value="documentation" />
                </node>
                <node concept="3oM_SD" id="4OoJ5EINaSD" role="1PaTwD">
                  <property role="3oM_SC" value="..." />
                </node>
              </node>
            </node>
          </node>
          <node concept="1Pa9Pv" id="4OoJ5EINaS0" role="2kWE_F">
            <node concept="1PaTwC" id="4OoJ5EINaS1" role="1PaQFQ">
              <node concept="3oM_SD" id="4OoJ5EINaS3" role="1PaTwD">
                <property role="3oM_SC" value="Google" />
              </node>
              <node concept="3oM_SD" id="4OoJ5EINaS4" role="1PaTwD">
                <property role="3oM_SC" value="Cloud" />
              </node>
              <node concept="3oM_SD" id="4OoJ5EINaS5" role="1PaTwD">
                <property role="3oM_SC" value="Vision" />
              </node>
              <node concept="3oM_SD" id="4OoJ5EINaS6" role="1PaTwD">
                <property role="3oM_SC" value="API" />
              </node>
            </node>
          </node>
        </node>
        <node concept="1Pa9Pv" id="4OoJ5EINaQ2" role="2kWE_j">
          <node concept="1PaTwC" id="4OoJ5EINaQ3" role="1PaQFQ">
            <node concept="3oM_SD" id="4OoJ5EINaQ5" role="1PaTwD">
              <property role="3oM_SC" value="Eliminating" />
            </node>
            <node concept="3oM_SD" id="4OoJ5EINaQ6" role="1PaTwD">
              <property role="3oM_SC" value="reports" />
            </node>
            <node concept="3oM_SD" id="4OoJ5EINaQ7" role="1PaTwD">
              <property role="3oM_SC" value="containing" />
            </node>
            <node concept="3oM_SD" id="4OoJ5EINaQ8" role="1PaTwD">
              <property role="3oM_SC" value="non-relevant" />
            </node>
            <node concept="3oM_SD" id="4OoJ5EINaQ9" role="1PaTwD">
              <property role="3oM_SC" value="pictures" />
            </node>
            <node concept="3oM_SD" id="4OoJ5EINaQa" role="1PaTwD">
              <property role="3oM_SC" value="(not" />
            </node>
            <node concept="3oM_SD" id="4OoJ5EINaQb" role="1PaTwD">
              <property role="3oM_SC" value="depicting" />
            </node>
            <node concept="3oM_SD" id="4OoJ5EINaQc" role="1PaTwD">
              <property role="3oM_SC" value="a" />
            </node>
            <node concept="3oM_SD" id="4OoJ5EINaQd" role="1PaTwD">
              <property role="3oM_SC" value="species" />
            </node>
            <node concept="3oM_SD" id="4OoJ5EINaQe" role="1PaTwD">
              <property role="3oM_SC" value="or" />
            </node>
            <node concept="3oM_SD" id="4OoJ5EINaQf" role="1PaTwD">
              <property role="3oM_SC" value="evidence" />
            </node>
            <node concept="3oM_SD" id="4OoJ5EINaQg" role="1PaTwD">
              <property role="3oM_SC" value="of" />
            </node>
            <node concept="3oM_SD" id="4OoJ5EINaQh" role="1PaTwD">
              <property role="3oM_SC" value="a" />
            </node>
            <node concept="3oM_SD" id="4OoJ5EINaQi" role="1PaTwD">
              <property role="3oM_SC" value="species" />
            </node>
            <node concept="3oM_SD" id="4OoJ5EINaQj" role="1PaTwD">
              <property role="3oM_SC" value="presence)" />
            </node>
          </node>
          <node concept="1PaTwC" id="4OoJ5EINaQk" role="1PaQFQ">
            <node concept="3oM_SD" id="4OoJ5EINaQl" role="1PaTwD">
              <property role="3oM_SC" value="                                                                                                                                                                                                                                                                 " />
            </node>
          </node>
          <node concept="1PaTwC" id="4OoJ5EINaQm" role="1PaQFQ">
            <node concept="3oM_SD" id="4OoJ5EINaQn" role="1PaTwD">
              <property role="3oM_SC" value="" />
            </node>
            <node concept="3oM_SD" id="4OoJ5EINaQo" role="1PaTwD">
              <property role="3oM_SC" value="Partial" />
            </node>
            <node concept="3oM_SD" id="4OoJ5EINaQp" role="1PaTwD">
              <property role="3oM_SC" value="automated" />
            </node>
            <node concept="3oM_SD" id="4OoJ5EINaQq" role="1PaTwD">
              <property role="3oM_SC" value="moderation" />
            </node>
            <node concept="3oM_SD" id="4OoJ5EINaQr" role="1PaTwD">
              <property role="3oM_SC" value="using" />
            </node>
            <node concept="3oM_SD" id="4OoJ5EINaQs" role="1PaTwD">
              <property role="3oM_SC" value="image" />
            </node>
            <node concept="3oM_SD" id="4OoJ5EINaQt" role="1PaTwD">
              <property role="3oM_SC" value="recognition" />
            </node>
            <node concept="3oM_SD" id="4OoJ5EINaQu" role="1PaTwD">
              <property role="3oM_SC" value="to" />
            </node>
            <node concept="3oM_SD" id="4OoJ5EINaQv" role="1PaTwD">
              <property role="3oM_SC" value="identify" />
            </node>
            <node concept="3oM_SD" id="4OoJ5EINaQw" role="1PaTwD">
              <property role="3oM_SC" value="most" />
            </node>
            <node concept="3oM_SD" id="4OoJ5EINaQx" role="1PaTwD">
              <property role="3oM_SC" value="prominent" />
            </node>
            <node concept="3oM_SD" id="4OoJ5EINaQy" role="1PaTwD">
              <property role="3oM_SC" value="features" />
            </node>
            <node concept="3oM_SD" id="4OoJ5EINaQz" role="1PaTwD">
              <property role="3oM_SC" value="that" />
            </node>
            <node concept="3oM_SD" id="4OoJ5EINaQ$" role="1PaTwD">
              <property role="3oM_SC" value="are" />
            </node>
            <node concept="3oM_SD" id="4OoJ5EINaQ_" role="1PaTwD">
              <property role="3oM_SC" value="included" />
            </node>
            <node concept="3oM_SD" id="4OoJ5EINaQA" role="1PaTwD">
              <property role="3oM_SC" value="in" />
            </node>
            <node concept="3oM_SD" id="4OoJ5EINaQB" role="1PaTwD">
              <property role="3oM_SC" value="the" />
            </node>
            <node concept="3oM_SD" id="4OoJ5EINaQC" role="1PaTwD">
              <property role="3oM_SC" value="image" />
            </node>
            <node concept="3oM_SD" id="4OoJ5EINaQD" role="1PaTwD">
              <property role="3oM_SC" value="by" />
            </node>
            <node concept="3oM_SD" id="4OoJ5EINaQE" role="1PaTwD">
              <property role="3oM_SC" value="taking" />
            </node>
            <node concept="3oM_SD" id="4OoJ5EINaQF" role="1PaTwD">
              <property role="3oM_SC" value="the" />
            </node>
            <node concept="3oM_SD" id="4OoJ5EINaQG" role="1PaTwD">
              <property role="3oM_SC" value="picture" />
            </node>
            <node concept="3oM_SD" id="4OoJ5EINaQH" role="1PaTwD">
              <property role="3oM_SC" value="as" />
            </node>
            <node concept="3oM_SD" id="4OoJ5EINaQI" role="1PaTwD">
              <property role="3oM_SC" value="an" />
            </node>
            <node concept="3oM_SD" id="4OoJ5EINaQJ" role="1PaTwD">
              <property role="3oM_SC" value="input" />
            </node>
            <node concept="3oM_SD" id="4OoJ5EINaQK" role="1PaTwD">
              <property role="3oM_SC" value="and" />
            </node>
            <node concept="3oM_SD" id="4OoJ5EINaQL" role="1PaTwD">
              <property role="3oM_SC" value="returning" />
            </node>
            <node concept="3oM_SD" id="4OoJ5EINaQM" role="1PaTwD">
              <property role="3oM_SC" value="an" />
            </node>
            <node concept="3oM_SD" id="4OoJ5EINaQN" role="1PaTwD">
              <property role="3oM_SC" value="ordered" />
            </node>
            <node concept="3oM_SD" id="4OoJ5EINaQO" role="1PaTwD">
              <property role="3oM_SC" value="list" />
            </node>
            <node concept="3oM_SD" id="4OoJ5EINaQP" role="1PaTwD">
              <property role="3oM_SC" value="of" />
            </node>
            <node concept="3oM_SD" id="4OoJ5EINaQQ" role="1PaTwD">
              <property role="3oM_SC" value="feature" />
            </node>
            <node concept="3oM_SD" id="4OoJ5EINaQR" role="1PaTwD">
              <property role="3oM_SC" value="names" />
            </node>
            <node concept="3oM_SD" id="4OoJ5EINaQS" role="1PaTwD">
              <property role="3oM_SC" value="and" />
            </node>
            <node concept="3oM_SD" id="4OoJ5EINaQT" role="1PaTwD">
              <property role="3oM_SC" value="the" />
            </node>
            <node concept="3oM_SD" id="4OoJ5EINaQU" role="1PaTwD">
              <property role="3oM_SC" value="likelihood" />
            </node>
            <node concept="3oM_SD" id="4OoJ5EINaQV" role="1PaTwD">
              <property role="3oM_SC" value="that" />
            </node>
            <node concept="3oM_SD" id="4OoJ5EINaQW" role="1PaTwD">
              <property role="3oM_SC" value="they" />
            </node>
            <node concept="3oM_SD" id="4OoJ5EINaQX" role="1PaTwD">
              <property role="3oM_SC" value="are" />
            </node>
            <node concept="3oM_SD" id="4OoJ5EINaQY" role="1PaTwD">
              <property role="3oM_SC" value="present" />
            </node>
            <node concept="3oM_SD" id="4OoJ5EINaQZ" role="1PaTwD">
              <property role="3oM_SC" value="in" />
            </node>
            <node concept="3oM_SD" id="4OoJ5EINaR0" role="1PaTwD">
              <property role="3oM_SC" value="the" />
            </node>
            <node concept="3oM_SD" id="4OoJ5EINaR1" role="1PaTwD">
              <property role="3oM_SC" value="input." />
            </node>
          </node>
          <node concept="1PaTwC" id="4OoJ5EINaR2" role="1PaQFQ">
            <node concept="3oM_SD" id="4OoJ5EINaR3" role="1PaTwD">
              <property role="3oM_SC" value="                                                                                                                                                                                                                                                                 " />
            </node>
          </node>
          <node concept="1PaTwC" id="4OoJ5EINaR4" role="1PaQFQ">
            <node concept="3oM_SD" id="4OoJ5EINaR5" role="1PaTwD">
              <property role="3oM_SC" value="" />
            </node>
            <node concept="3oM_SD" id="4OoJ5EINaR6" role="1PaTwD">
              <property role="3oM_SC" value="Original" />
            </node>
            <node concept="3oM_SD" id="4OoJ5EINaR7" role="1PaTwD">
              <property role="3oM_SC" value="photo" />
            </node>
            <node concept="3oM_SD" id="4OoJ5EINaR8" role="1PaTwD">
              <property role="3oM_SC" value="is" />
            </node>
            <node concept="3oM_SD" id="4OoJ5EINaR9" role="1PaTwD">
              <property role="3oM_SC" value="maintained" />
            </node>
            <node concept="3oM_SD" id="4OoJ5EINaRa" role="1PaTwD">
              <property role="3oM_SC" value="as" />
            </node>
            <node concept="3oM_SD" id="4OoJ5EINaRb" role="1PaTwD">
              <property role="3oM_SC" value="a" />
            </node>
            <node concept="3oM_SD" id="4OoJ5EINaRc" role="1PaTwD">
              <property role="3oM_SC" value="reference," />
            </node>
            <node concept="3oM_SD" id="4OoJ5EINaRd" role="1PaTwD">
              <property role="3oM_SC" value="but" />
            </node>
            <node concept="3oM_SD" id="4OoJ5EINaRe" role="1PaTwD">
              <property role="3oM_SC" value="only" />
            </node>
            <node concept="3oM_SD" id="4OoJ5EINaRf" role="1PaTwD">
              <property role="3oM_SC" value="the" />
            </node>
            <node concept="3oM_SD" id="4OoJ5EINaRg" role="1PaTwD">
              <property role="3oM_SC" value="moderated" />
            </node>
            <node concept="3oM_SD" id="4OoJ5EINaRh" role="1PaTwD">
              <property role="3oM_SC" value="version" />
            </node>
            <node concept="3oM_SD" id="4OoJ5EINaRi" role="1PaTwD">
              <property role="3oM_SC" value="is" />
            </node>
            <node concept="3oM_SD" id="4OoJ5EINaRj" role="1PaTwD">
              <property role="3oM_SC" value="used" />
            </node>
            <node concept="3oM_SD" id="4OoJ5EINaRk" role="1PaTwD">
              <property role="3oM_SC" value="in" />
            </node>
            <node concept="3oM_SD" id="4OoJ5EINaRl" role="1PaTwD">
              <property role="3oM_SC" value="further" />
            </node>
            <node concept="3oM_SD" id="4OoJ5EINaRm" role="1PaTwD">
              <property role="3oM_SC" value="processing." />
            </node>
          </node>
        </node>
        <node concept="1Pa9Pv" id="4OoJ5EINaRn" role="2kWE_q">
          <node concept="1PaTwC" id="4OoJ5EINaRo" role="1PaQFQ">
            <node concept="3oM_SD" id="4OoJ5EINaRq" role="1PaTwD">
              <property role="3oM_SC" value="Some" />
            </node>
            <node concept="3oM_SD" id="4OoJ5EINaRr" role="1PaTwD">
              <property role="3oM_SC" value="of" />
            </node>
            <node concept="3oM_SD" id="4OoJ5EINaRs" role="1PaTwD">
              <property role="3oM_SC" value="the" />
            </node>
            <node concept="3oM_SD" id="4OoJ5EINaRt" role="1PaTwD">
              <property role="3oM_SC" value="photos" />
            </node>
            <node concept="3oM_SD" id="4OoJ5EINaRu" role="1PaTwD">
              <property role="3oM_SC" value="submitted" />
            </node>
            <node concept="3oM_SD" id="4OoJ5EINaRv" role="1PaTwD">
              <property role="3oM_SC" value="may" />
            </node>
            <node concept="3oM_SD" id="4OoJ5EINaRw" role="1PaTwD">
              <property role="3oM_SC" value="not" />
            </node>
            <node concept="3oM_SD" id="4OoJ5EINaRx" role="1PaTwD">
              <property role="3oM_SC" value="be" />
            </node>
            <node concept="3oM_SD" id="4OoJ5EINaRy" role="1PaTwD">
              <property role="3oM_SC" value="relevant" />
            </node>
          </node>
        </node>
      </node>
      <node concept="2kZhFw" id="4OoJ5EINaSH" role="2kXK6$">
        <property role="TrG5h" value="Comment Moderation (pre-validation)" />
        <node concept="3tqL$f" id="4OoJ5EINb8L" role="3vwBSN">
          <property role="3tqLAI" value="46c6RmsTKno/editor" />
          <node concept="mPx8y" id="4OoJ5EINb8M" role="3sMobb">
            <property role="3kZLcv" value="7S6YWaEPrqz/referto" />
            <ref role="mPx8_" node="4OoJ5EINaUV" resolve="Data processing department" />
          </node>
        </node>
        <node concept="1Pa9Pv" id="4OoJ5EINaSI" role="2kWE_j">
          <node concept="1PaTwC" id="4OoJ5EINaSJ" role="1PaQFQ">
            <node concept="3oM_SD" id="4OoJ5EINaSL" role="1PaTwD">
              <property role="3oM_SC" value="Moderation" />
            </node>
            <node concept="3oM_SD" id="4OoJ5EINaSM" role="1PaTwD">
              <property role="3oM_SC" value="of" />
            </node>
            <node concept="3oM_SD" id="4OoJ5EINaSN" role="1PaTwD">
              <property role="3oM_SC" value="the" />
            </node>
            <node concept="3oM_SD" id="4OoJ5EINaSO" role="1PaTwD">
              <property role="3oM_SC" value="comments" />
            </node>
            <node concept="3oM_SD" id="4OoJ5EINaSP" role="1PaTwD">
              <property role="3oM_SC" value="is" />
            </node>
            <node concept="3oM_SD" id="4OoJ5EINaSQ" role="1PaTwD">
              <property role="3oM_SC" value="intended" />
            </node>
            <node concept="3oM_SD" id="4OoJ5EINaSR" role="1PaTwD">
              <property role="3oM_SC" value="to" />
            </node>
            <node concept="3oM_SD" id="4OoJ5EINaSS" role="1PaTwD">
              <property role="3oM_SC" value="identify" />
            </node>
            <node concept="3oM_SD" id="4OoJ5EINaST" role="1PaTwD">
              <property role="3oM_SC" value="and" />
            </node>
            <node concept="3oM_SD" id="4OoJ5EINaSU" role="1PaTwD">
              <property role="3oM_SC" value="adjust" />
            </node>
            <node concept="3oM_SD" id="4OoJ5EINaSV" role="1PaTwD">
              <property role="3oM_SC" value="those" />
            </node>
            <node concept="3oM_SD" id="4OoJ5EINaSW" role="1PaTwD">
              <property role="3oM_SC" value="comments" />
            </node>
            <node concept="3oM_SD" id="4OoJ5EINaSX" role="1PaTwD">
              <property role="3oM_SC" value="potentially" />
            </node>
            <node concept="3oM_SD" id="4OoJ5EINaSY" role="1PaTwD">
              <property role="3oM_SC" value="using" />
            </node>
            <node concept="3oM_SD" id="4OoJ5EINaSZ" role="1PaTwD">
              <property role="3oM_SC" value="inappropriate" />
            </node>
            <node concept="3oM_SD" id="4OoJ5EINaT0" role="1PaTwD">
              <property role="3oM_SC" value="language." />
            </node>
            <node concept="3oM_SD" id="4OoJ5EINaT1" role="1PaTwD">
              <property role="3oM_SC" value="Currently," />
            </node>
            <node concept="3oM_SD" id="4OoJ5EINaT2" role="1PaTwD">
              <property role="3oM_SC" value="we" />
            </node>
            <node concept="3oM_SD" id="4OoJ5EINaT3" role="1PaTwD">
              <property role="3oM_SC" value="apply" />
            </node>
            <node concept="3oM_SD" id="4OoJ5EINaT4" role="1PaTwD">
              <property role="3oM_SC" value="manual" />
            </node>
            <node concept="3oM_SD" id="4OoJ5EINaT5" role="1PaTwD">
              <property role="3oM_SC" value="checks" />
            </node>
            <node concept="3oM_SD" id="4OoJ5EINaT6" role="1PaTwD">
              <property role="3oM_SC" value="that" />
            </node>
            <node concept="3oM_SD" id="4OoJ5EINaT7" role="1PaTwD">
              <property role="3oM_SC" value="take" />
            </node>
            <node concept="3oM_SD" id="4OoJ5EINaT8" role="1PaTwD">
              <property role="3oM_SC" value="the" />
            </node>
            <node concept="3oM_SD" id="4OoJ5EINaT9" role="1PaTwD">
              <property role="3oM_SC" value="original" />
            </node>
            <node concept="3oM_SD" id="4OoJ5EINaTa" role="1PaTwD">
              <property role="3oM_SC" value="comment" />
            </node>
            <node concept="3oM_SD" id="4OoJ5EINaTb" role="1PaTwD">
              <property role="3oM_SC" value="as" />
            </node>
            <node concept="3oM_SD" id="4OoJ5EINaTc" role="1PaTwD">
              <property role="3oM_SC" value="an" />
            </node>
            <node concept="3oM_SD" id="4OoJ5EINaTd" role="1PaTwD">
              <property role="3oM_SC" value="input" />
            </node>
            <node concept="3oM_SD" id="4OoJ5EINaTe" role="1PaTwD">
              <property role="3oM_SC" value="and" />
            </node>
            <node concept="3oM_SD" id="4OoJ5EINaTf" role="1PaTwD">
              <property role="3oM_SC" value="result" />
            </node>
            <node concept="3oM_SD" id="4OoJ5EINaTg" role="1PaTwD">
              <property role="3oM_SC" value="in" />
            </node>
            <node concept="3oM_SD" id="4OoJ5EINaTh" role="1PaTwD">
              <property role="3oM_SC" value="a" />
            </node>
            <node concept="3oM_SD" id="4OoJ5EINaTi" role="1PaTwD">
              <property role="3oM_SC" value="moderated" />
            </node>
            <node concept="3oM_SD" id="4OoJ5EINaTj" role="1PaTwD">
              <property role="3oM_SC" value="version." />
            </node>
            <node concept="3oM_SD" id="4OoJ5EINaTk" role="1PaTwD">
              <property role="3oM_SC" value="This" />
            </node>
            <node concept="3oM_SD" id="4OoJ5EINaTl" role="1PaTwD">
              <property role="3oM_SC" value="step" />
            </node>
            <node concept="3oM_SD" id="4OoJ5EINaTm" role="1PaTwD">
              <property role="3oM_SC" value="is" />
            </node>
            <node concept="3oM_SD" id="4OoJ5EINaTn" role="1PaTwD">
              <property role="3oM_SC" value="supported" />
            </node>
            <node concept="3oM_SD" id="4OoJ5EINaTo" role="1PaTwD">
              <property role="3oM_SC" value="by" />
            </node>
            <node concept="3oM_SD" id="4OoJ5EINaTp" role="1PaTwD">
              <property role="3oM_SC" value="a" />
            </node>
            <node concept="3oM_SD" id="4OoJ5EINaTq" role="1PaTwD">
              <property role="3oM_SC" value="dedicated" />
            </node>
            <node concept="3oM_SD" id="4OoJ5EINaTr" role="1PaTwD">
              <property role="3oM_SC" value="administration" />
            </node>
            <node concept="3oM_SD" id="4OoJ5EINaTs" role="1PaTwD">
              <property role="3oM_SC" value="tool" />
            </node>
            <node concept="3oM_SD" id="4OoJ5EINaTt" role="1PaTwD">
              <property role="3oM_SC" value="for" />
            </node>
            <node concept="3oM_SD" id="4OoJ5EINaTu" role="1PaTwD">
              <property role="3oM_SC" value="the" />
            </node>
            <node concept="3oM_SD" id="4OoJ5EINaTv" role="1PaTwD">
              <property role="3oM_SC" value="data" />
            </node>
            <node concept="3oM_SD" id="4OoJ5EINaTw" role="1PaTwD">
              <property role="3oM_SC" value="that" />
            </node>
            <node concept="3oM_SD" id="4OoJ5EINaTx" role="1PaTwD">
              <property role="3oM_SC" value="is" />
            </node>
            <node concept="3oM_SD" id="4OoJ5EINaTy" role="1PaTwD">
              <property role="3oM_SC" value="collected" />
            </node>
            <node concept="3oM_SD" id="4OoJ5EINaTz" role="1PaTwD">
              <property role="3oM_SC" value="by" />
            </node>
            <node concept="3oM_SD" id="4OoJ5EINaT$" role="1PaTwD">
              <property role="3oM_SC" value="the" />
            </node>
            <node concept="3oM_SD" id="4OoJ5EINaT_" role="1PaTwD">
              <property role="3oM_SC" value="APP." />
            </node>
            <node concept="3oM_SD" id="4OoJ5EINaTA" role="1PaTwD">
              <property role="3oM_SC" value="Original" />
            </node>
            <node concept="3oM_SD" id="4OoJ5EINaTB" role="1PaTwD">
              <property role="3oM_SC" value="comment" />
            </node>
            <node concept="3oM_SD" id="4OoJ5EINaTC" role="1PaTwD">
              <property role="3oM_SC" value="is" />
            </node>
            <node concept="3oM_SD" id="4OoJ5EINaTD" role="1PaTwD">
              <property role="3oM_SC" value="retained" />
            </node>
            <node concept="3oM_SD" id="4OoJ5EINaTE" role="1PaTwD">
              <property role="3oM_SC" value="but" />
            </node>
            <node concept="3oM_SD" id="4OoJ5EINaTF" role="1PaTwD">
              <property role="3oM_SC" value="only" />
            </node>
            <node concept="3oM_SD" id="4OoJ5EINaTG" role="1PaTwD">
              <property role="3oM_SC" value="moderated" />
            </node>
            <node concept="3oM_SD" id="4OoJ5EINaTH" role="1PaTwD">
              <property role="3oM_SC" value="versions" />
            </node>
            <node concept="3oM_SD" id="4OoJ5EINaTI" role="1PaTwD">
              <property role="3oM_SC" value="are" />
            </node>
            <node concept="3oM_SD" id="4OoJ5EINaTJ" role="1PaTwD">
              <property role="3oM_SC" value="used" />
            </node>
            <node concept="3oM_SD" id="4OoJ5EINaTK" role="1PaTwD">
              <property role="3oM_SC" value="for" />
            </node>
            <node concept="3oM_SD" id="4OoJ5EINaTL" role="1PaTwD">
              <property role="3oM_SC" value="further" />
            </node>
            <node concept="3oM_SD" id="4OoJ5EINaTM" role="1PaTwD">
              <property role="3oM_SC" value="processing." />
            </node>
          </node>
        </node>
        <node concept="1Pa9Pv" id="4OoJ5EINaTN" role="2kWE_q">
          <node concept="1PaTwC" id="4OoJ5EINaTO" role="1PaQFQ">
            <node concept="3oM_SD" id="4OoJ5EINaTQ" role="1PaTwD">
              <property role="3oM_SC" value="Remove" />
            </node>
            <node concept="3oM_SD" id="4OoJ5EINaTR" role="1PaTwD">
              <property role="3oM_SC" value="inappropriate" />
            </node>
            <node concept="3oM_SD" id="4OoJ5EINaTS" role="1PaTwD">
              <property role="3oM_SC" value="language" />
            </node>
          </node>
        </node>
      </node>
      <node concept="1Pa9Pv" id="3D6IRTQy$Yk" role="2kXgEK">
        <node concept="1PaTwC" id="3D6IRTQy$Yl" role="1PaQFQ">
          <node concept="3oM_SD" id="3D6IRTQy$Yn" role="1PaTwD">
            <property role="3oM_SC" value="Any" />
          </node>
          <node concept="3oM_SD" id="3D6IRTQy$Yo" role="1PaTwD">
            <property role="3oM_SC" value="observation" />
          </node>
          <node concept="3oM_SD" id="3D6IRTQy$Yp" role="1PaTwD">
            <property role="3oM_SC" value="submitted" />
          </node>
          <node concept="3oM_SD" id="3D6IRTQy$Yq" role="1PaTwD">
            <property role="3oM_SC" value="through" />
          </node>
          <node concept="3oM_SD" id="3D6IRTQy$Yr" role="1PaTwD">
            <property role="3oM_SC" value="the" />
          </node>
          <node concept="3oM_SD" id="3D6IRTQy$Ys" role="1PaTwD">
            <property role="3oM_SC" value="'Invasive" />
          </node>
          <node concept="3oM_SD" id="3D6IRTQy$Yt" role="1PaTwD">
            <property role="3oM_SC" value="Alien" />
          </node>
          <node concept="3oM_SD" id="3D6IRTQy$Yu" role="1PaTwD">
            <property role="3oM_SC" value="Species" />
          </node>
          <node concept="3oM_SD" id="3D6IRTQy$Yv" role="1PaTwD">
            <property role="3oM_SC" value="in" />
          </node>
          <node concept="3oM_SD" id="3D6IRTQy$Yw" role="1PaTwD">
            <property role="3oM_SC" value="Europe'" />
          </node>
          <node concept="3oM_SD" id="3D6IRTQy$Yx" role="1PaTwD">
            <property role="3oM_SC" value="App" />
          </node>
          <node concept="3oM_SD" id="3D6IRTQy$Yy" role="1PaTwD">
            <property role="3oM_SC" value="(the" />
          </node>
          <node concept="3oM_SD" id="3D6IRTQy$Yz" role="1PaTwD">
            <property role="3oM_SC" value="App)" />
          </node>
          <node concept="3oM_SD" id="3D6IRTQy$Y$" role="1PaTwD">
            <property role="3oM_SC" value="is" />
          </node>
          <node concept="3oM_SD" id="3D6IRTQy$Y_" role="1PaTwD">
            <property role="3oM_SC" value="composed" />
          </node>
          <node concept="3oM_SD" id="3D6IRTQy$YA" role="1PaTwD">
            <property role="3oM_SC" value="of" />
          </node>
          <node concept="3oM_SD" id="3D6IRTQy$YB" role="1PaTwD">
            <property role="3oM_SC" value="a" />
          </node>
          <node concept="3oM_SD" id="3D6IRTQy$YC" role="1PaTwD">
            <property role="3oM_SC" value="collection" />
          </node>
          <node concept="3oM_SD" id="3D6IRTQy$YD" role="1PaTwD">
            <property role="3oM_SC" value="of" />
          </node>
          <node concept="3oM_SD" id="3D6IRTQy$YE" role="1PaTwD">
            <property role="3oM_SC" value="elements:" />
          </node>
          <node concept="3oM_SD" id="3D6IRTQy$YF" role="1PaTwD">
            <property role="3oM_SC" value="a" />
          </node>
          <node concept="3oM_SD" id="3D6IRTQy$YG" role="1PaTwD">
            <property role="3oM_SC" value="picture" />
          </node>
          <node concept="3oM_SD" id="3D6IRTQy$YH" role="1PaTwD">
            <property role="3oM_SC" value="(photo)" />
          </node>
          <node concept="3oM_SD" id="3D6IRTQy$YI" role="1PaTwD">
            <property role="3oM_SC" value="of" />
          </node>
          <node concept="3oM_SD" id="3D6IRTQy$YJ" role="1PaTwD">
            <property role="3oM_SC" value="the" />
          </node>
          <node concept="3oM_SD" id="3D6IRTQy$YK" role="1PaTwD">
            <property role="3oM_SC" value="species" />
          </node>
          <node concept="3oM_SD" id="3D6IRTQy$YL" role="1PaTwD">
            <property role="3oM_SC" value="(with" />
          </node>
          <node concept="3oM_SD" id="3D6IRTQy$YM" role="1PaTwD">
            <property role="3oM_SC" value="the" />
          </node>
          <node concept="3oM_SD" id="3D6IRTQy$YN" role="1PaTwD">
            <property role="3oM_SC" value="associated" />
          </node>
          <node concept="3oM_SD" id="3D6IRTQy$YO" role="1PaTwD">
            <property role="3oM_SC" value="metadata)," />
          </node>
          <node concept="3oM_SD" id="3D6IRTQy$YP" role="1PaTwD">
            <property role="3oM_SC" value="attributes" />
          </node>
          <node concept="3oM_SD" id="3D6IRTQy$YQ" role="1PaTwD">
            <property role="3oM_SC" value="(time," />
          </node>
          <node concept="3oM_SD" id="3D6IRTQy$YR" role="1PaTwD">
            <property role="3oM_SC" value="location," />
          </node>
          <node concept="3oM_SD" id="3D6IRTQy$YS" role="1PaTwD">
            <property role="3oM_SC" value="and" />
          </node>
          <node concept="3oM_SD" id="3D6IRTQy$YT" role="1PaTwD">
            <property role="3oM_SC" value="habitat)" />
          </node>
          <node concept="3oM_SD" id="3D6IRTQy$YU" role="1PaTwD">
            <property role="3oM_SC" value="and" />
          </node>
          <node concept="3oM_SD" id="3D6IRTQy$YV" role="1PaTwD">
            <property role="3oM_SC" value="the" />
          </node>
          <node concept="3oM_SD" id="3D6IRTQy$YW" role="1PaTwD">
            <property role="3oM_SC" value="comments" />
          </node>
          <node concept="3oM_SD" id="3D6IRTQy$YX" role="1PaTwD">
            <property role="3oM_SC" value="of" />
          </node>
          <node concept="3oM_SD" id="3D6IRTQy$YY" role="1PaTwD">
            <property role="3oM_SC" value="the" />
          </node>
          <node concept="3oM_SD" id="3D6IRTQy$YZ" role="1PaTwD">
            <property role="3oM_SC" value="user," />
          </node>
          <node concept="3oM_SD" id="3D6IRTQy$Z0" role="1PaTwD">
            <property role="3oM_SC" value="all" />
          </node>
          <node concept="3oM_SD" id="3D6IRTQy$Z1" role="1PaTwD">
            <property role="3oM_SC" value="of" />
          </node>
          <node concept="3oM_SD" id="3D6IRTQy$Z2" role="1PaTwD">
            <property role="3oM_SC" value="which" />
          </node>
          <node concept="3oM_SD" id="3D6IRTQy$Z3" role="1PaTwD">
            <property role="3oM_SC" value="can" />
          </node>
          <node concept="3oM_SD" id="3D6IRTQy$Z4" role="1PaTwD">
            <property role="3oM_SC" value="be" />
          </node>
          <node concept="3oM_SD" id="3D6IRTQy$Z5" role="1PaTwD">
            <property role="3oM_SC" value="validated" />
          </node>
          <node concept="3oM_SD" id="3D6IRTQy$Z6" role="1PaTwD">
            <property role="3oM_SC" value="through" />
          </node>
          <node concept="3oM_SD" id="3D6IRTQy$Z7" role="1PaTwD">
            <property role="3oM_SC" value="separate" />
          </node>
          <node concept="3oM_SD" id="3D6IRTQy$Z8" role="1PaTwD">
            <property role="3oM_SC" value="mechanisms." />
          </node>
          <node concept="3oM_SD" id="3D6IRTQy$Z9" role="1PaTwD">
            <property role="3oM_SC" value="Quality" />
          </node>
          <node concept="3oM_SD" id="3D6IRTQy$Za" role="1PaTwD">
            <property role="3oM_SC" value="assurance" />
          </node>
          <node concept="3oM_SD" id="3D6IRTQy$Zb" role="1PaTwD">
            <property role="3oM_SC" value="before" />
          </node>
          <node concept="3oM_SD" id="3D6IRTQy$Zc" role="1PaTwD">
            <property role="3oM_SC" value="and" />
          </node>
          <node concept="3oM_SD" id="3D6IRTQy$Zd" role="1PaTwD">
            <property role="3oM_SC" value="during" />
          </node>
          <node concept="3oM_SD" id="3D6IRTQy$Ze" role="1PaTwD">
            <property role="3oM_SC" value="the" />
          </node>
          <node concept="3oM_SD" id="3D6IRTQy$Zf" role="1PaTwD">
            <property role="3oM_SC" value="data" />
          </node>
          <node concept="3oM_SD" id="3D6IRTQy$Zg" role="1PaTwD">
            <property role="3oM_SC" value="gathering" />
          </node>
          <node concept="3oM_SD" id="3D6IRTQy$Zh" role="1PaTwD">
            <property role="3oM_SC" value="are" />
          </node>
          <node concept="3oM_SD" id="3D6IRTQy$Zi" role="1PaTwD">
            <property role="3oM_SC" value="covered" />
          </node>
          <node concept="3oM_SD" id="3D6IRTQy$Zj" role="1PaTwD">
            <property role="3oM_SC" value="by" />
          </node>
          <node concept="3oM_SD" id="3D6IRTQy$Zk" role="1PaTwD">
            <property role="3oM_SC" value="the" />
          </node>
          <node concept="3oM_SD" id="3D6IRTQy$Zl" role="1PaTwD">
            <property role="3oM_SC" value="application" />
          </node>
          <node concept="3oM_SD" id="3D6IRTQy$Zm" role="1PaTwD">
            <property role="3oM_SC" value="itself." />
          </node>
        </node>
      </node>
    </node>
  </node>
  <node concept="1hkLIw" id="3D6IRTQy$ZF">
    <property role="TrG5h" value="Citizen_photo" />
    <property role="3GE5qa" value="Citations" />
    <node concept="3tqtt9" id="3D6IRTQy$ZG" role="1hlsSJ">
      <property role="3tqLJ0" value="Citizen photo" />
      <property role="3tqLwc" value="46c6RmsTKfQ/imageDigital" />
      <node concept="3tqL$f" id="4OoJ5EINb4a" role="3tooGv">
        <property role="3tqLAI" value="46c6RmsTKmZ/author" />
        <node concept="mPx8y" id="4OoJ5EINb4b" role="3sMobb">
          <property role="3kZLcv" value="7S6YWaEPrqz/referto" />
          <ref role="mPx8_" node="3D6IRTQy$ZH" resolve="Anon Citizen" />
        </node>
      </node>
    </node>
  </node>
  <node concept="3idWNq" id="3D6IRTQy$ZH">
    <property role="TrG5h" value="Anon Citizen" />
    <property role="3GE5qa" value="Contacts" />
    <node concept="3tqLxz" id="3D6IRTQy$ZI" role="3idWNp">
      <node concept="3tqLAg" id="3D6IRTQy$ZL" role="3tsIbD">
        <property role="3tqLAp" value="46c6RmsTKfn/voice" />
      </node>
      <node concept="1Pa9Pv" id="3D6IRTQy$ZN" role="1zzSTL">
        <node concept="1PaTwC" id="3D6IRTQy$ZO" role="1PaQFQ">
          <node concept="3oM_SD" id="3D6IRTQy$ZP" role="1PaTwD">
            <property role="3oM_SC" value="Can" />
          </node>
          <node concept="3oM_SD" id="3D6IRTQy$ZQ" role="1PaTwD">
            <property role="3oM_SC" value="only" />
          </node>
          <node concept="3oM_SD" id="3D6IRTQy$ZR" role="1PaTwD">
            <property role="3oM_SC" value="be" />
          </node>
          <node concept="3oM_SD" id="3D6IRTQy$ZU" role="1PaTwD">
            <property role="3oM_SC" value="contacted" />
          </node>
          <node concept="3oM_SD" id="3D6IRTQy$ZV" role="1PaTwD">
            <property role="3oM_SC" value="through" />
          </node>
          <node concept="3oM_SD" id="3D6IRTQy$ZW" role="1PaTwD">
            <property role="3oM_SC" value="the" />
          </node>
          <node concept="3oM_SD" id="3D6IRTQy$ZX" role="1PaTwD">
            <property role="3oM_SC" value="App" />
          </node>
          <node concept="3oM_SD" id="3D6IRTQy$ZY" role="1PaTwD">
            <property role="3oM_SC" value="which" />
          </node>
          <node concept="3oM_SD" id="3D6IRTQy_01" role="1PaTwD">
            <property role="3oM_SC" value="ensures" />
          </node>
          <node concept="3oM_SD" id="3D6IRTQy_04" role="1PaTwD">
            <property role="3oM_SC" value="annonimity" />
          </node>
        </node>
      </node>
    </node>
  </node>
  <node concept="3idWNq" id="4OoJ5EINaUV">
    <property role="3GE5qa" value="Contacts" />
    <property role="TrG5h" value="Data processing department" />
    <node concept="3tqLxz" id="4OoJ5EINaUW" role="3idWNp" />
  </node>
</model>

